dplyr | Kokomo
…
3. 分组：group_by

将数按照某项内容进行分组，方面后续分析。格式为：

group_by(data, group_by(group))

根据喂食方式（4种）分组：

group_by(ChickWeight, Diet)
#  A tibble: 578 x 4
#  Groups:   Diet [4]
#   weight  Time Chick Diet 
# *  <dbl> <dbl> <ord> <fct>
# 1     42     0 1     1    
# 2     51     2 1     1    
# 3     59     4 1     1    
# 4     64     6 1     1    
# 5     76     8 1     1    
# 6     93    10 1     1    
# 7    106    12 1     1    
# 8    125    14 1     1    
# 9    149    16 1     1    
#10    171    18 1     1    
#  ... with 568 more rows
…
